<?xml version="1.0" encoding="utf-8"?>
<!-- Generator: Adobe Illustrator 15.1.0, SVG Export Plug-In . SVG Version: 6.00 Build 0)  -->
<!DOCTYPE svg PUBLIC "-//W3C//DTD SVG 1.1//EN" "http://www.w3.org/Graphics/SVG/1.1/DTD/svg11.dtd">
<svg version="1.1" id="Calque_1" xmlns="http://www.w3.org/2000/svg" xmlns:xlink="http://www.w3.org/1999/xlink" x="0px" y="0px"
	 width="39.954px" height="39.954px" viewBox="0 0 39.954 39.954" enable-background="new 0 0 39.954 39.954" xml:space="preserve">
<path fill="#E6180A" stroke="#E6180A" d="M19.977,39.068c0,0-5.17-7.557-8.353-10.738S0.885,19.977,0.885,19.977
	s7.557-5.17,10.739-8.353c3.182-3.183,8.353-10.739,8.353-10.739s5.172,7.557,8.354,10.739s10.738,8.353,10.738,8.353
	s-7.557,5.172-10.738,8.354S19.977,39.068,19.977,39.068z"/>
</svg>
