{
    "titre"     :   "Boule et boule",
    "consigne"  :   "Sélectionne tous les couples donnant le résultat demandé.",
    "question"  :   "Sélectionne couples qui ont pour somme ",
    "opt4"      :   "Type de complément : ",
    "label4"    :   ["à la dizaine supérieure","à une dizaine supérieure"],
    "opt5"      :   "Effacement des bulles : ",
    "label5"    :   ["Pas d'effactement","Lent","Moyen","Rapide","Très rapide"],
    "opt6"      :   "Cible : ",
    "label6"    :   [10,20,30,40,50,60,70,80,90,100,1,2,3]
 }