blocklist.addons.mozilla.org:HSTS	2	17689	1528389889608,1,0
services.addons.mozilla.org:HSTS	8	17746	1564846826718,1,0
api.qwant.com:HSTS	0	16862	1488469380437,1,1
stats.g.doubleclick.net:HSTS	0	16862	1467819145048,1,0
services.addons.mozilla.org:HPKP	2	17746	1538494826719,1,1,WoiWRyIOVNa9ihaBciRSC7XHjliYS9VwUGOIud4PB18=r/mIkG3eEpVdm+u/ko/cwxzOMo1bk4TyHIlByibiA5E=
versioncheck-bg.addons.mozilla.org:HSTS	2	17746	1533311127680,1,0
shavar.services.mozilla.com:HSTS	3	17746	1564846802343,1,1
s.qwant.com:HSTS	0	16862	1488469760163,1,1
addons.cdn.mozilla.net:HSTS	2	17738	1564139683323,1,1
versioncheck-bg.addons.mozilla.org:HPKP	2	17746	1538494827682,1,1,WoiWRyIOVNa9ihaBciRSC7XHjliYS9VwUGOIud4PB18=r/mIkG3eEpVdm+u/ko/cwxzOMo1bk4TyHIlByibiA5E=
aus5.mozilla.org:HSTS	1	17746	1564846376775,1,0
www.qwant.com:HSTS	0	17746	1564846672947,1,1
easylist-downloads.adblockplus.org:HSTS	0	16862	1488468934576,1,0
notification.adblockplus.org:HSTS	0	16862	1488468994024,1,0
