{
"titre":"Le Quadricalc Inversé",
"consigne":"Utilise les flèches du clavier pour diriger le nombre vers le bon calcul.",
"option1":"Nombre de tentatives : ",
"option2":"Nombre A :",
"option3":"Nombre B :",
"option4":"Vitesse de chute : ",
"option5":["très lente","lente","moyenne","rapide","très rapide"],
"option6":"Choix de l'opération : ",
"option7": ["addition","soustraction","multiplication","division"],
"option8":"Nombre de décimales A : ",
"option9":"Nombre de décimales B : "
}