/* XPM */
static char * multisystem_liveusb_xpm[] = {
"32 32 517 2",
"  	c None",
". 	c #ECB978",
"+ 	c #ECBD7B",
"@ 	c #EDBD7D",
"# 	c #F4C272",
"$ 	c #C18B93",
"% 	c #C79AAE",
"& 	c #BF8889",
"* 	c #F1BB69",
"= 	c #8E3195",
"- 	c #C69567",
"; 	c #FA7B0A",
"> 	c #F87D0D",
", 	c #F3750A",
"' 	c #D2939F",
") 	c #FFFEFF",
"! 	c #FFFFFF",
"~ 	c #FAF6FC",
"{ 	c #CB8B9B",
"] 	c #EB700C",
"^ 	c #C07D37",
"/ 	c #760491",
"( 	c #B06F58",
"_ 	c #F7F21F",
": 	c #FAF43C",
"< 	c #F8790E",
"[ 	c #F87E10",
"} 	c #FA7D10",
"| 	c #FB800E",
"1 	c #D7908A",
"2 	c #5B5B5B",
"3 	c #E3E3E3",
"4 	c #C4869B",
"5 	c #B1712D",
"6 	c #A55C5F",
"7 	c #F0E40F",
"8 	c #FFFF03",
"9 	c #FDFC1D",
"0 	c #F8F244",
"a 	c #F7780D",
"b 	c #BD9C16",
"c 	c #A1A918",
"d 	c #AC9513",
"e 	c #EAD8F3",
"f 	c #767676",
"g 	c #4E4E4E",
"h 	c #FEFEFE",
"i 	c #F9F3FD",
"j 	c #824547",
"k 	c #9D4C67",
"l 	c #E7D418",
"m 	c #FFFF00",
"n 	c #FEFE00",
"o 	c #FEFE06",
"p 	c #FDFD1D",
"q 	c #F7EF44",
"r 	c #87B31A",
"s 	c #7DBD1E",
"t 	c #C6E379",
"u 	c #8B9B47",
"v 	c #F4F4F4",
"w 	c #000000",
"x 	c #D6D6D6",
"y 	c #824B69",
"z 	c #953D70",
"A 	c #DDC124",
"B 	c #FEFF00",
"C 	c #FDEA06",
"D 	c #FCF11E",
"E 	c #B0D82B",
"F 	c #B3D861",
"G 	c #FBFDBD",
"H 	c #C3CF86",
"I 	c #779A2B",
"J 	c #F2E0F8",
"K 	c #666666",
"L 	c #5C5C5C",
"M 	c #7A4262",
"N 	c #8D2E79",
"O 	c #D3AE2E",
"P 	c #FDCD02",
"Q 	c #FA230A",
"R 	c #FA000C",
"S 	c #FF000A",
"T 	c #89AD1C",
"U 	c #91C03B",
"V 	c #87AD3E",
"W 	c #F4F5B6",
"X 	c #77B818",
"Y 	c #BCA5AC",
"Z 	c #EBEBEB",
"` 	c #DCDCDC",
" .	c #E4CEE6",
"..	c #815347",
"+.	c #862181",
"@.	c #C89B39",
"#.	c #FEED00",
"$.	c #FA090C",
"%.	c #F94A38",
"&.	c #F90D0A",
"*.	c #FF060B",
"=.	c #84B31D",
"-.	c #7FBE1E",
";.	c #7BBC1A",
">.	c #DAEA93",
",.	c #A0C255",
"'.	c #78A025",
").	c #DABEDB",
"!.	c #9E9F9E",
"~.	c #C1BAC5",
"{.	c #9E5E65",
"].	c #A66938",
"^.	c #7F1488",
"/.	c #BF8943",
"(.	c #DBEF1C",
"_.	c #A4D747",
":.	c #C0E42F",
"<.	c #FB7905",
"[.	c #F90B09",
"}.	c #FDFEBF",
"|.	c #E3261D",
"1.	c #FE0A0B",
"2.	c #9E8D19",
"3.	c #7FBD1E",
"4.	c #7FBE1F",
"5.	c #90C338",
"6.	c #ECEFAE",
"7.	c #7AB61D",
"8.	c #749E22",
"9.	c #996F79",
"0.	c #C196AC",
"a.	c #B787A0",
"b.	c #9C514B",
"c.	c #DA6E19",
"d.	c #BD7A34",
"e.	c #7E1389",
"f.	c #B5784E",
"g.	c #FCF902",
"h.	c #69BE77",
"i.	c #0B96C3",
"j.	c #5EBABE",
"k.	c #1FA2C0",
"l.	c #BB313B",
"m.	c #FB0E0B",
"n.	c #F77D5E",
"o.	c #E5A179",
"p.	c #DC2D0E",
"q.	c #7AC31F",
"r.	c #7ABB19",
"s.	c #DFEB9A",
"t.	c #88B23B",
"u.	c #7BB11B",
"v.	c #B46E0E",
"w.	c #E67412",
"x.	c #E37314",
"y.	c #F37B11",
"z.	c #FB800F",
"A.	c #BC7934",
"B.	c #AB645A",
"C.	c #9DD54B",
"D.	c #51B4BE",
"E.	c #1399B7",
"F.	c #60B8B7",
"G.	c #AAD2B1",
"H.	c #AA3D46",
"I.	c #FA0F0C",
"J.	c #F60C0A",
"K.	c #FCFFC0",
"L.	c #E41F17",
"M.	c #FB0505",
"N.	c #C04712",
"O.	c #7EB71E",
"P.	c #7EC11F",
"Q.	c #79B91E",
"R.	c #79A520",
"S.	c #94710F",
"T.	c #F07D10",
"U.	c #F87F10",
"V.	c #F87F11",
"W.	c #F77E11",
"X.	c #FA7F10",
"Y.	c #D9B722",
"Z.	c #AE6648",
"`.	c #C7955B",
" +	c #E8CF14",
".+	c #37AA9B",
"++	c #CDE8BC",
"@+	c #5CABA9",
"#+	c #0E97B8",
"$+	c #ECF4BB",
"%+	c #696B75",
"&+	c #FF0A06",
"*+	c #FB0D0A",
"=+	c #F78C69",
"-+	c #EEB487",
";+	c #FFE0A9",
">+	c #DE6B51",
",+	c #AE2E0A",
"'+	c #AE7B11",
")+	c #A47610",
"!+	c #C2710F",
"~+	c #F27E10",
"{+	c #BB7934",
"]+	c #AF6C56",
"^+	c #AF6646",
"/+	c #7C047C",
"(+	c #861A7E",
"_+	c #B97DB5",
":+	c #1D96B4",
"<+	c #43AAB5",
"[+	c #DEE8B4",
"}+	c #1697B4",
"|+	c #6EBEB7",
"1+	c #98CBB0",
"2+	c #AA363D",
"3+	c #FF0C09",
"4+	c #F71611",
"5+	c #E0B587",
"6+	c #C54031",
"7+	c #CA2213",
"8+	c #CF590D",
"9+	c #F98011",
"0+	c #F97F11",
"a+	c #F87E11",
"b+	c #BC7833",
"c+	c #99437E",
"d+	c #CEA2D1",
"e+	c #882581",
"f+	c #790070",
"g+	c #E2D9E1",
"h+	c #FDF5F7",
"i+	c #2680A7",
"j+	c #1099B9",
"k+	c #D7EDBC",
"l+	c #4FA4A7",
"m+	c #0B95B8",
"n+	c #EFF1B5",
"o+	c #1793AD",
"p+	c #8F4F34",
"q+	c #E32B09",
"r+	c #DA230D",
"s+	c #C74016",
"t+	c #CA530B",
"u+	c #F67E11",
"v+	c #BB7630",
"w+	c #8C2C8B",
"x+	c #FAFDFB",
"y+	c #F0E9EF",
"z+	c #7B0D73",
"A+	c #DFC7DD",
"B+	c #C5A7C2",
"C+	c #86A6BE",
"D+	c #16A0BC",
"E+	c #45AAB4",
"F+	c #F2F6BA",
"G+	c #B2DFBE",
"H+	c #B0C7A0",
"I+	c #2095AD",
"J+	c #95B126",
"K+	c #F5F103",
"L+	c #EBE012",
"M+	c #F1EA30",
"N+	c #F9760D",
"O+	c #FA7E10",
"P+	c #FA7F0F",
"Q+	c #FB7F0F",
"R+	c #FD800F",
"S+	c #BA7229",
"T+	c #7C0978",
"U+	c #DABBD7",
"V+	c #B898B6",
"W+	c #E7D8E6",
"X+	c #CFA9CC",
"Y+	c #8A4485",
"Z+	c #F9F5F5",
"`+	c #34628E",
" @	c #119DC1",
".@	c #4EA6AA",
"+@	c #63A097",
"@@	c #2992A6",
"#@	c #529056",
"$@	c #E5ED08",
"%@	c #FFFF02",
"&@	c #FDFE0C",
"*@	c #FCFE20",
"=@	c #DEBB27",
"-@	c #CE9C2B",
";@	c #BA8846",
">@	c #B5834C",
",@	c #B6834C",
"'@	c #B4844D",
")@	c #B4844E",
"!@	c #B48349",
"~@	c #C7962E",
"{@	c #C18B2A",
"]@	c #935A50",
"^@	c #80147C",
"/@	c #903089",
"(@	c #DED0DD",
"_@	c #B686B3",
":@	c #9C6096",
"<@	c #D6B4D4",
"[@	c #A0827F",
"}@	c #9DBA2E",
"|@	c #56A169",
"1@	c #4F9A69",
"2@	c #85A930",
"3@	c #E1E90A",
"4@	c #FEFE04",
"5@	c #FDFE0E",
"6@	c #FCFC25",
"7@	c #FDFD47",
"8@	c #BFBF93",
"9@	c #B2B2A2",
"0@	c #B3B2A3",
"a@	c #B4B4A3",
"b@	c #B3B4A3",
"c@	c #ACAC98",
"d@	c #E3E44B",
"e@	c #E3CF43",
"f@	c #A35C5B",
"g@	c #7F0D6D",
"h@	c #E3CCE0",
"i@	c #893883",
"j@	c #D1B0CE",
"k@	c #B390B0",
"l@	c #7F1079",
"m@	c #917631",
"n@	c #FEFD00",
"o@	c #FCFD00",
"p@	c #FAFB01",
"q@	c #FEFE01",
"r@	c #FFFF05",
"s@	c #FCFD19",
"t@	c #FCFD3F",
"u@	c #B9B890",
"v@	c #B2B2A9",
"w@	c #B1B0A5",
"x@	c #ADACA0",
"y@	c #B3B3A7",
"z@	c #BABAB2",
"A@	c #A3A293",
"B@	c #E0E144",
"C@	c #E1CB38",
"D@	c #AB655A",
"E@	c #DDCD0F",
"F@	c #994B86",
"G@	c #CBB0CE",
"H@	c #7D0978",
"I@	c #7B2075",
"J@	c #824938",
"K@	c #E4DC06",
"L@	c #FEFD13",
"M@	c #FDFE3A",
"N@	c #B8B890",
"O@	c #868682",
"P@	c #94938D",
"Q@	c #A9A99E",
"R@	c #9A9A91",
"S@	c #898984",
"T@	c #A0A094",
"U@	c #DCDC3E",
"V@	c #E2CB34",
"W@	c #EAE601",
"X@	c #AD9627",
"Y@	c #A07829",
"Z@	c #B49F13",
"`@	c #ECE605",
" #	c #FEFD11",
".#	c #FEFE35",
"+#	c #B4B38A",
"@#	c #A5A49E",
"##	c #A5A49D",
"$#	c #A3A29C",
"%#	c #A5A39D",
"&#	c #999890",
"*#	c #D8D939",
"=#	c #E1CB32",
"-#	c #FFFF01",
";#	c #FDFD0E",
">#	c #FFFF27",
",#	c #B1B085",
"'#	c #9D9D9C",
")#	c #9E9D9B",
"!#	c #9E9D9C",
"~#	c #95948F",
"{#	c #D8D92D",
"]#	c #E1C92E",
"^#	c #FFFE01",
"/#	c #FEFE08",
"(#	c #FEFE18",
"_#	c #CECD4A",
":#	c #A09F5E",
"<#	c #A1A062",
"[#	c #A0A064",
"}#	c #A0A062",
"|#	c #A0A05F",
"1#	c #9E9E53",
"2#	c #E3E21F",
"3#	c #E1C828",
"4#	c #F1F100",
"5#	c #E3E300",
"6#	c #F9F900",
"7#	c #FAFA00",
"8#	c #F8F800",
"9#	c #DFDF00",
"0#	c #F2F200",
"a#	c #F8F802",
"b#	c #F1F10A",
"c#	c #F0F015",
"d#	c #F1F11F",
"e#	c #F9F924",
"f#	c #F1F126",
"g#	c #FDFD25",
"h#	c #FCFC20",
"i#	c #F8F816",
"j#	c #F3F30C",
"k#	c #E1C923",
"l#	c #A5A800",
"m#	c #333300",
"n#	c #606000",
"o#	c #3A3A00",
"p#	c #757500",
"q#	c #727200",
"r#	c #0C0C00",
"s#	c #BFBF00",
"t#	c #212100",
"u#	c #717100",
"v#	c #171700",
"w#	c #BABA00",
"x#	c #4E4E00",
"y#	c #545400",
"z#	c #828200",
"A#	c #232302",
"B#	c #666605",
"C#	c #646408",
"D#	c #AEAE0A",
"E#	c #00000B",
"F#	c #BFBF0A",
"G#	c #FFFF08",
"H#	c #3F3F06",
"I#	c #101003",
"J#	c #ECD320",
"K#	c #AD675A",
"L#	c #6B6D00",
"M#	c #5D5D00",
"N#	c #F4F400",
"O#	c #EDED00",
"P#	c #040400",
"Q#	c #777700",
"R#	c #989800",
"S#	c #979700",
"T#	c #3C3C00",
"U#	c #E7E700",
"V#	c #ECEC00",
"W#	c #131300",
"X#	c #999900",
"Y#	c #6B6B00",
"Z#	c #A3A300",
"`#	c #515100",
" $	c #525200",
".$	c #494900",
"+$	c #101000",
"@$	c #898900",
"#$	c #151500",
"$$	c #4D4D00",
"%$	c #9E9E00",
"&$	c #242400",
"*$	c #303000",
"=$	c #FCFC00",
"-$	c #E9E900",
";$	c #232300",
">$	c #575700",
",$	c #B5B500",
"'$	c #A4A400",
")$	c #949400",
"!$	c #080800",
"~$	c #B4B400",
"{$	c #B06A5A",
"]$	c #707200",
"^$	c #C3C300",
"/$	c #3D3D00",
"($	c #8E8E00",
"_$	c #CCCC00",
":$	c #252500",
"<$	c #C2C200",
"[$	c #707000",
"}$	c #8B8B00",
"|$	c #656500",
"1$	c #090900",
"2$	c #D0D200",
"3$	c #353500",
"4$	c #3B3B00",
"5$	c #D0D000",
"6$	c #676700",
"7$	c #3F3F00",
"8$	c #6A6A00",
"9$	c #464600",
"0$	c #AFAF00",
"a$	c #484800",
"b$	c #A2A200",
"c$	c #747400",
"d$	c #424200",
"e$	c #E9D020",
"f$	c #9C486A",
"g$	c #E0C720",
"h$	c #E6CA23",
"i$	c #E8CC23",
"j$	c #E0C423",
"k$	c #DEC223",
"l$	c #E4C823",
"m$	c #E5C923",
"n$	c #E1C523",
"o$	c #DFC323",
"p$	c #E1C623",
"q$	c #E3C723",
"r$	c #C18D41",
"                                                                ",
"                                                                ",
"                                      . + @ @ # $ % & *         ",
"                                = - ; > > > , ' ) ! ~ { ] ^     ",
"                            / ( _ : < [ } | 1 ! 2 3 ! ! 4 5     ",
"                          6 7 8 9 0 a b c d e ! f g h h i j     ",
"                      k l m n o p q r s t u ! ! v w x ! ! y     ",
"                  z A m n m B C D E F G H I J ! ! K L ! ! M     ",
"              N O m m m m P Q R S T U V W X Y ! ! Z w `  ...    ",
"          +.@.m m n m m #.$.%.&.*.=.-.;.>.,.'.).! ! !.~.{.].    ",
"      ^./.m m n m (._.:.<.[.}.|.1.2.3.4.5.6.7.8.9.0.a.b.c.d.    ",
"  e.f.g.m m m m h.i.j.k.l.m.n.o.&.p.q.3.r.s.t.u.v.w.x.y.z.A.    ",
"  B.m m m m m C.D.E.F.G.H.I.J.K.L.M.N.O.P.Q.R.S.T.U.V.W.X.A.    ",
"  B.m Y.Z.`. +.+++@+#+$+%+&+*+=+-+;+>+,+'+)+!+~+U.V.V.V.X.{+    ",
"  ]+^+/+(+! _+:+<+[+}+|+1+2+3+4+5+6+7+8+9+0+V.a+V.V.V.V.X.b+    ",
"  c+d+e+f+g+h+i+j+k+l+m+n+o+p+q+r+s+t+u+[ V.V.V.V.V.V.V.X.v+    ",
"  w+x+y+z+A+B+C+D+E+F+G+H+I+J+K+L+M+N+O+P+P+P+Q+P+Q+P+X.R+S+    ",
"  T+U+V+W+X+Y+Z+`+ @.@+@@@#@$@%@&@*@=@-@;@>@,@'@'@)@!@~@{@]@    ",
"  ^@/@(@_@h :@<@[@}@|@1@2@3@m n 4@5@6@7@8@9@0@a@b@a@c@d@e@      ",
"  f@g@h@i@j@k@l@m@n@o@p@m m n m q@r@s@t@u@v@w@x@y@z@A@B@C@      ",
"  D@E@F@G@H@I@J@K@m m m m m m m m %@L@M@N@O@P@Q@R@S@T@U@V@      ",
"  B.m W@X@Y@Z@`@m n m m m m m m m %@ #.#+#@###$#%###&#*#=#      ",
"  B.m m m m m m n m m m m m m m m -#;#>#,#'#)#)#)#!#~#{#]#      ",
"  B.m m m m m m m m m m m m m m m ^#/#(#_#:#<#[#}#|#1#2#3#      ",
"  B.m 4#5#m 4#n n 6#7#8#9#m 8#4#0#4#a#b#c#d#e#f#g#h#i#j#k#      ",
"  D@l#m#n#o#p#q#m r#s#t#u#v#w#x#w y#z#A#B#C#D#E#F#G#H#I#J#      ",
"  K#L#M#N#O#m P#Q#R#S#T#U#0#m V#W#m X#Y#m m Z#`# $7#.$+$J#      ",
"  B.m @$#$$$m %$v#m m %$&$*$=$-$W#m R#;$>$,$'$)$!$R#~$r#J#      ",
"  {$]$O#m w O#^$/$m ($_$m :$<$-$W#m R#[$m m Z#}$|$1$m r#J#      ",
"  D@2$3$4$@$m 5$6$m 5#o#7$8$m O#9$m 0$/$a$T#^$b$_$c$m d$e$      ",
"  f$g$h$i$j$k$j$l$k$k$m$i$n$k$o$m$k$n$h$h$h$j$p$o$q$k$m$r$      ",
"                                                                "};
