{
    "titre"     :   "La frise",
    "consigne"  :   "Déplacer le repère bleu avec les flèches du clavier pour qu'il indique la bonne date.",
    "opt1"      :   "Nombre de questions : ",
    "opt2"      :   "Nombre d'essais : ",
    "label2"    :   ["un","deux"],
    "opt3"      :   "Temps pour réaliser chaque question (en secondes)  : ",
    "opt4"		:	"Type de calcul : ",
    "label4"	:	["calculer une date anniversaire ( âge multiple de 10 )","calculer une date de naissance ( âge multiple de 10 )","calculer une date anniversaire ( âge quelconque )","calculer une date de naissance ( âge quelconque )"]
}