{
    "titre"     :   "L'oiseau",
    "consigne"  :   "Cliquer sur le nombre demandé avant que l'oiseau ne disparaisse.",
    "opt1"      :   "Nombre de questions : ",
    "opt2"      :   "Nombre d'essais : ",
    "label2"    :   ["un","deux"],
    "opt3"      :   "Temps pour réaliser l'exercice (en secondes)  : "
}