{
    "titre"     :   "Basketmath",
    "consigne"  :   "Cliquer sur VRAI quand la phrase proposée est juste.<br/>Cliquer sur FAUX quand il y a une erreur.",
    "opt1"      :   "Nombre de questions : ",
    "opt2"      :   "Nombre d'essais : ",
    "label2"    :   ["Double des nombres <=10, moitié des nombres pairs <=20","Doubles et moitiés des nombres courants","Doubles, moitiés, triples et quarts des nombres courants"],
    "opt3"      :   "Temps pour réaliser chaque question (en secondes)  : "
}