{
    "titre"     :   "Basketmath",
    "consigne"  :   "Clique sur le panier où se trouve la bonne opération",
    "opt1"      :   "Nombre d'essais : ",
    "label1"    :   ["un","deux"],
    "opt2"      :   "Temps pour réaliser l'exercice (en secondes)  : ",
    "opt3"	    :	"Type de calcul :",
    "label3"	: ["multiplier 1, 2, ..., 10, 20, ..., 100, 200, ... par 10, 20,...","multiplier 10, 20, ..., 100, 200, ... 1000, 2000 ... par 10, 20, ...","multiplier 10, 20, ..., 100, 200, ... 1000, 2000 ... par 10, 20, ..., 100, 200, ... 1000, 2000"]
}