<svg version="1.1"
	 xmlns="http://www.w3.org/2000/svg" xmlns:xlink="http://www.w3.org/1999/xlink" xmlns:a="http://ns.adobe.com/AdobeSVGViewerExtensions/3.0/"
	 x="0px" y="0px" width="116px" height="30px" viewBox="-0.9 -0.761 116 30"
	 overflow="visible" enable-background="new -0.9 -0.761 116 30" xml:space="preserve">
<polygon fill-rule="evenodd" clip-rule="evenodd" fill="#CCCCCC" points="0.05,17.364 0.05,11.064 9.6,5.564 9.6,22.915 "/>
<polyline fill-rule="evenodd" clip-rule="evenodd" fill="none" stroke="#999999" stroke-width="0.1" stroke-linecap="round" stroke-linejoin="round" stroke-miterlimit="3" points="
	0.05,17.364 9.6,22.915 9.6,5.564 0.05,11.064 "/>
<path fill-rule="evenodd" clip-rule="evenodd" fill="#CCCCCC" d="M11.1,8.214c0.434,1.667,0.65,3.683,0.65,6.05
	c0,2.367-0.216,4.4-0.65,6.1c-0.4,1.667-0.9,2.5-1.5,2.5s-1.117-0.833-1.55-2.5c-0.4-1.699-0.6-3.732-0.6-6.1
	c0-2.367,0.2-4.383,0.6-6.05c0.433-1.7,0.95-2.55,1.55-2.55S10.7,6.514,11.1,8.214z"/>
<path fill-rule="evenodd" clip-rule="evenodd" fill="none" stroke="#999999" stroke-width="0.1" stroke-linecap="round" stroke-linejoin="round" stroke-miterlimit="3" d="
	M11.1,8.214c0.434,1.667,0.65,3.683,0.65,6.05c0,2.367-0.216,4.4-0.65,6.1c-0.4,1.667-0.9,2.5-1.5,2.5s-1.117-0.833-1.55-2.5
	c-0.4-1.699-0.6-3.732-0.6-6.1c0-2.367,0.2-4.383,0.6-6.05c0.433-1.7,0.95-2.55,1.55-2.55S10.7,6.514,11.1,8.214z"/>
<linearGradient id="SVGID_1_" gradientUnits="userSpaceOnUse" x1="60.6748" y1="11.2266" x2="60.6748" y2="17.5021">
	<stop  offset="0" style="stop-color:#999999"/>
	<stop  offset="0.5255" style="stop-color:#CCCCCC"/>
	<stop  offset="1" style="stop-color:#999999"/>
</linearGradient>
<rect x="7.65" y="11.214" fill-rule="evenodd" clip-rule="evenodd" fill="url(#SVGID_1_)" width="106.05" height="6.25"/>
<path fill-rule="evenodd" clip-rule="evenodd" fill="#CCCCCC" d="M113.2,11.264c0.467,0,0.85,0.3,1.15,0.9
	c0.333,0.567,0.5,1.25,0.5,2.05c0,0.833-0.167,1.533-0.5,2.101c-0.3,0.566-0.683,0.85-1.15,0.85s-0.867-0.283-1.2-0.85
	c-0.167-0.301-0.283-0.65-0.35-1.051c-0.067-0.3-0.1-0.65-0.1-1.05c0-0.367,0.033-0.733,0.1-1.1c0.066-0.333,0.183-0.65,0.35-0.95
	C112.333,11.564,112.733,11.264,113.2,11.264z"/>
<path fill-rule="evenodd" clip-rule="evenodd" fill="none" stroke="#999999" stroke-width="0.1" stroke-linecap="round" stroke-linejoin="round" stroke-miterlimit="3" d="
	M113.2,11.264c0.467,0,0.85,0.3,1.15,0.9c0.333,0.567,0.5,1.25,0.5,2.05c0,0.833-0.167,1.533-0.5,2.101
	c-0.3,0.566-0.683,0.85-1.15,0.85s-0.867-0.283-1.2-0.85c-0.167-0.301-0.283-0.65-0.35-1.051c-0.067-0.3-0.1-0.65-0.1-1.05
	c0-0.367,0.033-0.733,0.1-1.1c0.066-0.333,0.183-0.65,0.35-0.95C112.333,11.564,112.733,11.264,113.2,11.264z"/>
<path fill-rule="evenodd" clip-rule="evenodd" fill="#006699" d="M106.1,11.214h-42c7-4,14-7,21-9
	C99.1-1.786,106.1,1.214,106.1,11.214z"/>
<path fill-rule="evenodd" clip-rule="evenodd" fill="none" stroke="#006699" stroke-linecap="round" stroke-linejoin="round" stroke-miterlimit="3" d="
	M106.1,11.214h-42c7-4,14-7,21-9C99.1-1.786,106.1,1.214,106.1,11.214z"/>
<path fill-rule="evenodd" clip-rule="evenodd" fill="#006699" d="M106.1,17.264c0,10-7,13-21,9c-7-2-14-5-21-9H106.1z"/>
<path fill-rule="evenodd" clip-rule="evenodd" fill="none" stroke="#006699" stroke-linecap="round" stroke-linejoin="round" stroke-miterlimit="3" d="
	M106.1,17.264h-42c7,4,14,7,21,9C99.1,30.264,106.1,27.264,106.1,17.264z"/>
</svg>
