<?xml version="1.0" encoding="utf-8"?>
<!-- Generator: Adobe Illustrator 15.1.0, SVG Export Plug-In . SVG Version: 6.00 Build 0)  -->
<!DOCTYPE svg PUBLIC "-//W3C//DTD SVG 1.1//EN" "http://www.w3.org/Graphics/SVG/1.1/DTD/svg11.dtd">
<svg version="1.1" id="Calque_1" xmlns="http://www.w3.org/2000/svg" xmlns:xlink="http://www.w3.org/1999/xlink" x="0px" y="0px"
	 width="37.802px" height="39.779px" viewBox="0 0 37.802 39.779" enable-background="new 0 0 37.802 39.779" xml:space="preserve">
<path fill="#E6180A" stroke="#E6180A" d="M37.302,10.121C37.277,21.42,23.123,29.648,18.973,38.598
	C14.774,29.674,0.596,21.518,0.5,10.217C0.476,4.891,4.603,0.548,9.664,0.548c5.086,0,9.236,4.294,9.236,9.62
	c0-5.35,4.103-9.668,9.165-9.668C33.15,0.476,37.277,4.794,37.302,10.121z"/>
</svg>
