<?xml version="1.0" encoding="utf-8"?>
<!-- Generator: Adobe Illustrator 15.1.0, SVG Export Plug-In . SVG Version: 6.00 Build 0)  -->
<!DOCTYPE svg PUBLIC "-//W3C//DTD SVG 1.1//EN" "http://www.w3.org/Graphics/SVG/1.1/DTD/svg11.dtd">
<svg version="1.1" id="Calque_1" xmlns="http://www.w3.org/2000/svg" xmlns:xlink="http://www.w3.org/1999/xlink" x="0px" y="0px"
	 width="33.387px" height="39.578px" viewBox="-0.5 -1.027 33.387 39.578" enable-background="new -0.5 -1.027 33.387 39.578"
	 xml:space="preserve">
<path stroke="#000000" fill="#000000" d="M6.789,38.051c4.007,0,6.118-4.271,7.222-8.541c1.104-4.27,1.199-8.541,1.199-8.541l2.039-0.023
	c0,0,0.384,17.105,8.397,17.105H6.789z"/>
<path stroke="#000000" fill="#000000" d="M0,20.945C0.023,12.619,12.523,6.574,16.193,0c3.67,6.598,16.17,12.645,16.194,20.945
	c0,3.934-3.621,7.125-8.107,7.125c-4.463,0-8.086-3.191-8.086-7.125c0,3.934-3.622,7.125-8.108,7.125S0,24.879,0,20.945z"/>
</svg>
