{
"titre":"Addiclic",
"consigne":"Cliquer sur le bon nombre.",
"option1":"Nombre de questions : ",
"option2":"Temps pour réaliser l'exercice (en secondes)  : ",
"option3":"Temps pour réaliser une question (en secondes)  : ",
"option4":"Type de calcul",
"valeurs4":["Résultats entre 0 et 10","Résultats entre 10 et 20", "Résultats entre 0 et 20", "Les calculs impliquent toujours un chevauchement de dizaine", "Nombre à un chiffre + nombre à un chiffre","Nombre à deux chiffres + nombre à un chiffre"],
"option5":"Temps d'exposition de la correction (en dixième de secondes) : "
}