{
    "titre":"Le Train",
    "consigneGenerale" :"Effectue l'opération avant que le train ne disparaisse.",
    "consigne1":"Calcule avant que le train ne disparaisse :",
    "option1":"Nombre de questions : ",
    "option2":"Temps pour réaliser l'exercice (en ms) : ",
    "option3":"Niveau de l'exercice"
}