{
    "titre":"Le bocal",
    "consigneGenerale":"Calcule la somme des nombres qui se trouvent dans les bulles.",
    "option1":"Nombre total de questions : ",
    "option2":"Nombre d'essai(s) par question : ",
    "option3":"Nombre de bulles",
    "option4":"Plage du premier nombre",
    "option5":"Plage des autres nombres",
    "option6":"Vitesse : ",
    "valeur6":["Lent","Normal","Rapide"]
    }