{
    "titre"     :   "Ticket de caisse",
    "consigne"  :   "Choisis le bon ticket.",
	"rappel"   	:	"Clique sur le ticket qu’on peut régler avec ce billet de ",
	"inferieur" :   "inférieur à ",
	"unite"     :   "€.",
	"opt1"      :   "Nombre de questions : ",  
    "opt2"      :   "Temps pour réaliser chaque question (en secondes)  : ",
    "opt3"      :   "Quel billet? (un billet par question)",
    "opt4"      :   "Nombre d'articles par ticket : ",
    "label4"    :   ["2","3","4"],
    "opt5"      :   "Nombre de caisses : ",
    "label5"    :   ["2","3","4","5"],
    "opt6"      :   "Prix",
    "label6"    :   ["0,01","0,1","0,25","1"],
    "opt7"      :   "Différence entre le billet et les tickets"
	
}